<svg width="150" height="150" viewBox="0 0 150 150" fill="none" xmlns="http://www.w3.org/2000/svg">
<path fill-rule="evenodd" clip-rule="evenodd" d="M75 150C116.421 150 150 116.421 150 75C150 33.5786 116.421 0 75 0C33.5786 0 0 33.5786 0 75C0 116.421 33.5786 150 75 150ZM108.571 56.564L62.143 98.6409L61.2792 99.4807L41.4285 79.0655L47.1513 73.5009L61.6 88.3604L103.211 50.6494L108.571 56.564Z" fill="#46A758"/>
</svg>
